…
## 15     ACR1_YEAST 0.66 0.55 0.45 0.19 0.5   0 0.46 0.22              MIT
## 344    GAL8_YEAST 0.60 0.60 0.49 0.30 0.5   0 0.53 0.22              NUC
## 984    RL34_YEAST 0.38 0.43 0.53 0.22 0.5   0 0.48 0.11              CYT
## 759    PT91_YEAST 0.59 0.45 0.58 0.21 0.5   0 0.49 0.22              MIT
# Show the levels
levels(yeast$group)
## NULL
library(dplyr)
group_by(yeast, SequenceName) %>%
  summarise(
    count = n(),
    mean = mean(nuc, na.rm = TRUE),
    sd = sd(nuc, na.rm = TRUE)
  )
## # A tibble: 1,462 x 4
##    SequenceName count  mean    sd
##    <chr>        <int> <dbl> <dbl>
##  1 6P2K_YEAST       1 0.3     NaN
##  2 6PGD_YEAST       1 0.31    NaN
##  3 AAR2_YEAST       1 0.22    NaN
##  4 AATC_YEAST       1 0.22    NaN
##  5 AATM_YEAST       1 0.22    NaN
##  6 ABC1_YEAST       1 0.22    NaN
##  7 ABF2_YEAST       1 0.22    NaN
##  8 ABP1_YEAST       1 0.3     NaN
##  9 ACE1_YEAST       1 0.27    NaN
## 10 ACE2_YEAST       1 0.290   NaN
## # ... with 1,452 more rows
…
